fport_sensor.vcd
$comment 
  OLS Java Client
$end
$date 
  Nov 17, 2020 4:58:01 PM
$end
$version 
  VCD exporter v1.1
$end
$timescale 
  1 us
$end
$scope 
  module logic
$end
$var wire 1 ! Channel-0 $end
$var wire 1 " Channel-1 $end
$var wire 1 # Channel-2 $end
$var wire 1 $ Channel-3 $end
$var wire 1 % Channel-4 $end
$var wire 1 & Channel-5 $end
$var wire 1 ' Channel-6 $end
$var wire 1 ( Channel-7 $end
$upscope $end
$enddefinitions $end
$dumpvars
x!
x"
x#
x$
x%
x&
x'
x(
$end
#0
1!
0"
0#
0$
0%
0&
0'
0(
#4120
0!
#4978
1!
#10072
0!
#16872
1!
#17380
0!
#18122
1!
#21722
0!
#24604
1!
#24612
0!
#24622
1!
#24666
0!
#24690
1!
#24700
0!
#24734
1!
#24786
0!
#24848
1!
#24874
0!
#24882
1!
#24908
0!
#24952
1!
#24960
0!
#24978
1!
#25022
0!
#25038
1!
#25048
0!
#25090
1!
#25134
0!
#25142
1!
#25152
0!
#25204
1!
#25220
0!
#25230
1!
#25264
0!
#25298
1!
#25308
0!
#25334
1!
#25376
0!
#25386
1!
#25394
0!
#25472
1!
#25482
0!
#25498
1!
#25524
0!
#25542
1!
#25550
0!
#25560
1!
#25568
0!
#25576
1!
#25586
0!
#25594
1!
#25612
0!
#25628
1!
#25654
0!
#25672
1!
#25724
0!
#25732
1!
#25742
0!
#25758
1!
#25812
0!
#25820
1!
#25828
0!
#25862
1!
#25872
0!
#25906
1!
#25916
0!
#25924
1!
#25932
0!
#25994
1!
#26002
0!
#26046
1!
#26054
0!
#26080
1!
#26088
0!
#26166
1!
#26176
0!
#26254
1!
#26262
0!
#26340
1!
#26350
0!
#26428
1!
#26436
0!
#26514
1!
#26522
0!
#26600
1!
#26610
0!
#26626
1!
#26644
0!
#26662
1!
#26696
0!
#26714
1!
#26766
0!
#26774
1!
#26832
0!
#26866
1!
#26874
0!
#26910
1!
#26918
0!
#26926
1!
#26934
0!
#26986
1!
#27002
0!
#27046
1!
#27054
0!
#27080
1!
#27088
0!
#27096
1!
#27104
0!
#27164
1!
#27172
0!
#27216
1!
#27224
0!
#27250
1!
#27258
0!
#27300
1!
#27308
0!
#27334
1!
#27342
0!
#27352
1!
#27376
0!
#27394
1!
#27402
0!
#27420
1!
#27428
0!
#27504
1!
#27512
0!
#27590
1!
#27598
0!
#27614
1!
#27648
0!
#27674
1!
#30094
0!
#30112
1!
#30164
0!
#30172
1!
#30182
0!
#30190
1!
#30198
0!
#30216
1!
#30234
0!
#30260
1!
#30268
0!
#30346
1!
#30354
0!
#30380
1!
#30398
0!
#30406
1!
#30416
0!
#30424
1!
#30442
0!
#30520
1!
#30528
0!
#30538
1!
#30580
0!
#30606
1!
#30616
0!
#30650
1!
#30702
0!
#30720
1!
#30728
0!
#30762
1!
#30790
0!
#30798
1!
#30824
0!
#30866
1!
#30876
0!
#30894
1!
#30936
0!
#30954
1!
#30962
0!
#31006
1!
#31050
0!
#31058
1!
#31066
0!
#31118
1!
#31136
0!
#31144
1!
#31180
0!
#31214
1!
#31224
0!
#31250
1!
#31292
0!
#31302
1!
#31310
0!
#31362
1!
#31396
0!
#31406
1!
#31422
0!
#31474
1!
#31484
0!
#31492
1!
#31536
0!
#31562
1!
#31570
0!
#31606
1!
#31658
0!
#31718
1!
#31744
0!
#31752
1!
#31778
0!
#31822
1!
#31830
0!
#31848
1!
#31892
0!
#31908
1!
#31918
0!
#31960
1!
#32004
0!
#32012
1!
#32022
0!
#32074
1!
#32092
0!
#32100
1!
#32134
0!
#32170
1!
#32178
0!
#32204
1!
#32248
0!
#32256
1!
#32264
0!
#32342
1!
#32352
0!
#32368
1!
#32396
0!
#32412
1!
#32422
0!
#32430
1!
#32438
0!
#32448
1!
#32456
0!
#32464
1!
#32482
0!
#32500
1!
#32526
0!
#32542
1!
#32594
0!
#32604
1!
#32612
0!
#32630
1!
#32682
0!
#32690
1!
#32700
0!
#32734
1!
#32742
0!
#32778
1!
#32786
0!
#32794
1!
#32804
0!
#32864
1!
#32872
0!
#32916
1!
#32924
0!
#32950
1!
#32960
0!
#33038
1!
#33046
0!
#33124
1!
#33134
0!
#33212
1!
#33220
0!
#33298
1!
#33306
0!
#33384
1!
#33394
0!
#33472
1!
#33480
0!
#33498
1!
#33516
0!
#33532
1!
#33568
0!
#33584
1!
#33636
0!
#33646
1!
#33712
0!
#33746
1!
#33754
0!
#33788
1!
#33796
0!
#33806
1!
#33814
0!
#33864
1!
#33882
0!
#33924
1!
#33932
0!
#33958
1!
#33966
0!
#33976
1!
#33984
0!
#34044
1!
#34052
0!
#34094
1!
#34102
0!
#34128
1!
#34136
0!
#34180
1!
#34188
0!
#34214
1!
#34222
0!
#34230
1!
#34256
0!
#34272
1!
#34280
0!
#34298
1!
#34306
0!
#34384
1!
#34392
0!
#34468
1!
#34476
0!
#34494
1!
#34528
0!
#34554
1!
#37332
0!
#37350
1!
#37402
0!
#37410
1!
#37418
0!
#37428
1!
#37436
0!
#37454
1!
#37470
0!
#37496
1!
#37506
0!
#37584
1!
#37592
0!
#37618
1!
#37636
0!
#37644
1!
#37654
0!
#37662
1!
#37680
0!
#37758
1!
#37766
0!
#37774
1!
#37818
0!
#37844
1!
#37852
0!
#37888
1!
#37940
0!
#37956
1!
#37966
0!
#38000
1!
#38026
0!
#38034
1!
#38062
0!
#38104
1!
#38114
0!
#38130
1!
#38174
0!
#38192
1!
#38200
0!
#38244
1!
#38286
0!
#38296
1!
#38304
0!
#38356
1!
#38374
0!
#38382
1!
#38418
0!
#38452
1!
#38460
0!
#38486
1!
#38530
0!
#38538
1!
#38548
0!
#38600
1!
#38634
0!
#38642
1!
#38660
0!
#38712
1!
#38722
0!
#38730
1!
#38774
0!
#38798
1!
#38808
0!
#38842
1!
#38894
0!
#38956
1!
#38982
0!
#38990
1!
#39016
0!
#39060
1!
#39068
0!
#39086
1!
#39130
0!
#39146
1!
#39156
0!
#39198
1!
#39242
0!
#39250
1!
#39260
0!
#39312
1!
#39328
0!
#39338
1!
#39372
0!
#39406
1!
#39416
0!
#39442
1!
#39486
0!
#39494
1!
#39502
0!
#39580
1!
#39590
0!
#39616
1!
#39632
0!
#39650
1!
#39658
0!
#39668
1!
#39676
0!
#39684
1!
#39720
0!
#39736
1!
#39762
0!
#39780
1!
#39832
0!
#39840
1!
#39850
0!
#39866
1!
#39920
0!
#39928
1!
#39936
0!
#39972
1!
#39980
0!
#40014
1!
#40024
0!
#40032
1!
#40040
0!
#40102
1!
#40110
0!
#40154
1!
#40162
0!
#40188
1!
#40196
0!
#40274
1!
#40284
0!
#40362
1!
#40370
0!
#40448
1!
#40458
0!
#40536
1!
#40544
0!
#40622
1!
#40630
0!
#40710
1!
#40718
0!
#40736
1!
#40752
0!
#40770
1!
#40804
0!
#40822
1!
#40874
0!
#40882
1!
#40938
0!
#40972
1!
#40980
0!
#41014
1!
#41022
0!
#41032
1!
#41040
0!
#41092
1!
#41108
0!
#41150
1!
#41158
0!
#41184
1!
#41192
0!
#41202
1!
#41210
0!
#41270
1!
#41278
0!
#41320
1!
#41328
0!
#41354
1!
#41362
0!
#41406
1!
#41414
0!
#41440
1!
#41448
0!
#41456
1!
#41482
0!
#41500
1!
#41508
0!
#41524
1!
#41532
0!
#41610
1!
#41618
0!
#41694
1!
#41702
0!
#41720
1!
#41754
0!
#41780
1!
#44360
0!
#44378
1!
#44430
0!
#44438
1!
#44448
0!
#44456
1!
#44464
0!
#44482
1!
#44500
0!
#44526
1!
#44534
0!
#44612
1!
#44620
0!
#44646
1!
#44664
0!
#44672
1!
#44682
0!
#44690
1!
#44708
0!
#44786
1!
#44794
0!
#44804
1!
#44846
0!
#44872
1!
#44882
0!
#44916
1!
#44968
0!
#44986
1!
#44994
0!
#45028
1!
#45054
0!
#45064
1!
#45090
0!
#45132
1!
#45142
0!
#45160
1!
#45202
0!
#45220
1!
#45228
0!
#45272
1!
#45316
0!
#45324
1!
#45332
0!
#45384
1!
#45402
0!
#45410
1!
#45446
0!
#45480
1!
#45490
0!
#45514
1!
#45558
0!
#45568
1!
#45576
0!
#45628
1!
#45662
0!
#45672
1!
#45688
0!
#45740
1!
#45750
0!
#45758
1!
#45802
0!
#45828
1!
#45836
0!
#45870
1!
#45924
0!
#45984
1!
#46010
0!
#46018
1!
#46044
0!
#46088
1!
#46096
0!
#46114
1!
#46158
0!
#46174
1!
#46184
0!
#46226
1!
#46270
0!
#46278
1!
#46288
0!
#46340
1!
#46358
0!
#46366
1!
#46400
0!
#46436
1!
#46444
0!
#46470
1!
#46514
0!
#46522
1!
#46530
0!
#46608
1!
#46618
0!
#46644
1!
#46662
0!
#46678
1!
#46688
0!
#46696
1!
#46704
0!
#46714
1!
#46748
0!
#46766
1!
#46792
0!
#46808
1!
#46860
0!
#46870
1!
#46878
0!
#46896
1!
#46948
0!
#46956
1!
#46966
0!
#47000
1!
#47008
0!
#47044
1!
#47052
0!
#47060
1!
#47070
0!
#47130
1!
#47138
0!
#47182
1!
#47190
0!
#47216
1!
#47226
0!
#47304
1!
#47312
0!
#47390
1!
#47400
0!
#47478
1!
#47486
0!
#47564
1!
#47572
0!
#47650
1!
#47660
0!
#47738
1!
#47746
0!
#47764
1!
#47782
0!
#47798
1!
#47834
0!
#47850
1!
#47902
0!
#47912
1!
#47952
0!
#47986
1!
#47994
0!
#48030
1!
#48038
0!
#48046
1!
#48054
0!
#48106
1!
#48122
0!
#48166
1!
#48174
0!
#48200
1!
#48208
0!
#48216
1!
#48224
0!
#48284
1!
#48292
0!
#48336
1!
#48344
0!
#48370
1!
#48378
0!
#48420
1!
#48428
0!
#48454
1!
#48462
0!
#48472
1!
#48496
0!
#48514
1!
#48522
0!
#48540
1!
#48548
0!
#48624
1!
#48632
0!
#48710
1!
#48716
0!
#48734
1!
#48768
0!
#48794
1!
#51380
0!
#51398
1!
#51450
0!
#51458
1!
#51468
0!
#51476
1!
#51484
0!
#51502
1!
#51520
0!
#51546
1!
#51554
0!
#51632
1!
#51640
0!
#51666
1!
#51684
0!
#51692
1!
#51702
0!
#51710
1!
#51728
0!
#51806
1!
#51814
0!
#51822
1!
#51866
0!
#51892
1!
#51902
0!
#51936
1!
#51988
0!
#52006
1!
#52014
0!
#52048
1!
#52074
0!
#52084
1!
#52110
0!
#52152
1!
#52162
0!
#52178
1!
#52222
0!
#52240
1!
#52248
0!
#52292
1!
#52336
0!
#52344
1!
#52352
0!
#52404
1!
#52422
0!
#52430
1!
#52466
0!
#52500
1!
#52508
0!
#52534
1!
#52578
0!
#52586
1!
#52596
0!
#52648
1!
#52682
0!
#52692
1!
#52708
0!
#52760
1!
#52770
0!
#52778
1!
#52822
0!
#52848
1!
#52856
0!
#52890
1!
#52944
0!
#53004
1!
#53030
0!
#53038
1!
#53064
0!
#53108
1!
#53116
0!
#53134
1!
#53178
0!
#53194
1!
#53204
0!
#53246
1!
#53290
0!
#53298
1!
#53308
0!
#53360
1!
#53378
0!
#53386
1!
#53420
0!
#53456
1!
#53464
0!
#53490
1!
#53534
0!
#53542
1!
#53550
0!
#53628
1!
#53638
0!
#53646
1!
#53654
0!
#53664
1!
#53680
0!
#53698
1!
#53708
0!
#53716
1!
#53724
0!
#53742
1!
#53768
0!
#53786
1!
#53812
0!
#53828
1!
#53880
0!
#53890
1!
#53898
0!
#53916
1!
#53968
0!
#53976
1!
#53984
0!
#54020
1!
#54028
0!
#54062
1!
#54072
0!
#54080
1!
#54090
0!
#54150
1!
#54158
0!
#54202
1!
#54210
0!
#54236
1!
#54246
0!
#54324
1!
#54332
0!
#54410
1!
#54418
0!
#54496
1!
#54506
0!
#54584
1!
#54592
0!
#54670
1!
#54680
0!
#54758
1!
#54766
0!
#54784
1!
#54800
0!
#54818
1!
#54854
0!
#54870
1!
#54922
0!
#54932
1!
#55012
0!
#55046
1!
#55054
0!
#55088
1!
#55096
0!
#55106
1!
#55114
0!
#55166
1!
#55182
0!
#55224
1!
#55232
0!
#55258
1!
#55266
0!
#55276
1!
#55284
0!
#55344
1!
#55352
0!
#55394
1!
#55402
0!
#55428
1!
#55436
0!
#55480
1!
#55488
0!
#55514
1!
#55522
0!
#55530
1!
#55556
0!
#55574
1!
#55582
0!
#55598
1!
#55606
0!
#55684
1!
#55692
0!
#55768
1!
#55776
0!
#55794
1!
#55828
0!
#55854
1!
#58232
0!
#58248
1!
#58300
0!
#58310
1!
#58318
0!
#58326
1!
#58336
0!
#58352
1!
#58370
0!
#58396
1!
#58406
0!
#58484
1!
#58492
0!
#58518
1!
#58536
0!
#58544
1!
#58552
0!
#58562
1!
#58578
0!
#58656
1!
#58666
0!
#58674
1!
#58718
0!
#58744
1!
#58752
0!
#58786
1!
#58840
0!
#58856
1!
#58866
0!
#58900
1!
#58926
0!
#58934
1!
#58960
0!
#59004
1!
#59012
0!
#59030
1!
#59074
0!
#59090
1!
#59100
0!
#59142
1!
#59186
0!
#59194
1!
#59204
0!
#59256
1!
#59274
0!
#59282
1!
#59316
0!
#59352
1!
#59360
0!
#59386
1!
#59430
0!
#59438
1!
#59446
0!
#59498
1!
#59534
0!
#59542
1!
#59560
0!
#59612
1!
#59620
0!
#59630
1!
#59672
0!
#59698
1!
#59708
0!
#59742
1!
#59794
0!
#59854
1!
#59880
0!
#59890
1!
#59916
0!
#59958
1!
#59968
0!
#59984
1!
#60028
0!
#60046
1!
#60054
0!
#60098
1!
#60142
0!
#60150
1!
#60158
0!
#60210
1!
#60228
0!
#60236
1!
#60272
0!
#60306
1!
#60316
0!
#60340
1!
#60384
0!
#60394
1!
#60402
0!
#60480
1!
#60488
0!
#60514
1!
#60532
0!
#60550
1!
#60558
0!
#60566
1!
#60576
0!
#60584
1!
#60618
0!
#60636
1!
#60662
0!
#60680
1!
#60732
0!
#60740
1!
#60750
0!
#60766
1!
#60818
0!
#60828
1!
#60836
0!
#60870
1!
#60880
0!
#60914
1!
#60922
0!
#60932
1!
#60940
0!
#61000
1!
#61010
0!
#61088
1!
#61096
0!
#61174
1!
#61184
0!
#61262
1!
#61270
0!
#61348
1!
#61356
0!
#61434
1!
#61444
0!
#61522
1!
#61530
0!
#61608
1!
#61618
0!
#61634
1!
#61652
0!
#61660
1!
#61704
0!
#61722
1!
#61774
0!
#61782
1!
#61826
0!
#61860
1!
#61868
0!
#61904
1!
#61912
0!
#61920
1!
#61928
0!
#61980
1!
#61996
0!
#62040
1!
#62048
0!
#62074
1!
#62082
0!
#62090
1!
#62098
0!
#62158
1!
#62166
0!
#62210
1!
#62218
0!
#62244
1!
#62252
0!
#62294
1!
#62302
0!
#62328
1!
#62336
0!
#62346
1!
#62370
0!
#62388
1!
#62396
0!
#62414
1!
#62422
0!
#62498
1!
#62506
0!
#62584
1!
#62592
0!
#62608
1!
#62642
0!
#62668
1!
#65450
0!
#65468
1!
#65520
0!
#65528
1!
#65538
0!
#65546
1!
#65556
0!
#65572
1!
#65590
0!
#65616
1!
#65624
0!
#65702
1!
#65712
0!
#65738
1!
#65754
0!
#65764
1!
#65772
0!
#65780
1!
#65798
0!
#65876
1!
#65886
0!
#65894
1!
#65938
0!
#65962
1!
#65972
0!
#66006
1!
#66058
0!
#66076
1!
#66084
0!
#66120
1!
#66146
0!
#66154
1!
#66180
0!
#66224
1!
#66232
0!
#66250
1!
#66294
0!
#66310
1!
#66320
0!
#66362
1!
#66406
0!
#66414
1!
#66424
0!
#66476
1!
#66492
0!
#66502
1!
#66536
0!
#66570
1!
#66580
0!
#66606
1!
#66648
0!
#66658
1!
#66666
0!
#66718
1!
#66754
0!
#66762
1!
#66780
0!
#66832
1!
#66840
0!
#66848
1!
#66892
0!
#66918
1!
#66926
0!
#66962
1!
#67014
0!
#67074
1!
#67100
0!
#67110
1!
#67136
0!
#67178
1!
#67188
0!
#67204
1!
#67248
0!
#67266
1!
#67274
0!
#67318
1!
#67360
0!
#67370
1!
#67378
0!
#67430
1!
#67448
0!
#67456
1!
#67492
0!
#67526
1!
#67534
0!
#67560
1!
#67604
0!
#67612
1!
#67622
0!
#67700
1!
#67708
0!
#67716
1!
#67726
0!
#67734
1!
#67752
0!
#67768
1!
#67778
0!
#67786
1!
#67796
0!
#67812
1!
#67838
0!
#67856
1!
#67882
0!
#67900
1!
#67952
0!
#67960
1!
#67968
0!
#67986
1!
#68038
0!
#68046
1!
#68056
0!
#68090
1!
#68098
0!
#68134
1!
#68142
0!
#68150
1!
#68160
0!
#68220
1!
#68230
0!
#68308
1!
#68316
0!
#68394
1!
#68402
0!
#68480
1!
#68490
0!
#68568
1!
#68576
0!
#68654
1!
#68664
0!
#68742
1!
#68750
0!
#68828
1!
#68836
0!
#68854
1!
#68872
0!
#68880
1!
#68924
0!
#68940
1!
#68994
0!
#69002
1!
#69066
0!
#69102
1!
#69110
0!
#69144
1!
#69152
0!
#69160
1!
#69168
0!
#69220
1!
#69236
0!
#69280
1!
#69288
0!
#69314
1!
#69322
0!
#69330
1!
#69338
0!
#69398
1!
#69406
0!
#69450
1!
#69458
0!
#69484
1!
#69492
0!
#69534
1!
#69542
0!
#69568
1!
#69576
0!
#69586
1!
#69610
0!
#69628
1!
#69636
0!
#69654
1!
#69662
0!
#69738
1!
#69746
0!
#69824
1!
#69832
0!
#69850
1!
#69882
0!
#69908
1!
#72304
0!
#72320
1!
#72372
0!
#72382
1!
#72390
0!
#72398
1!
#72408
0!
#72424
1!
#72442
0!
#72468
1!
#72476
0!
#72554
1!
#72564
0!
#72590
1!
#72606
0!
#72616
1!
#72624
0!
#72632
1!
#72650
0!
#72728
1!
#72738
0!
#72746
1!
#72790
0!
#72816
1!
#72824
0!
#72858
1!
#72910
0!
#72928
1!
#72936
0!
#72972
1!
#72998
0!
#73006
1!
#73032
0!
#73076
1!
#73084
0!
#73102
1!
#73146
0!
#73162
1!
#73172
0!
#73214
1!
#73258
0!
#73266
1!
#73276
0!
#73328
1!
#73344
0!
#73354
1!
#73388
0!
#73422
1!
#73432
0!
#73458
1!
#73502
0!
#73510
1!
#73518
0!
#73570
1!
#73606
0!
#73614
1!
#73632
0!
#73684
1!
#73692
0!
#73700
1!
#73744
0!
#73770
1!
#73780
0!
#73814
1!
#73866
0!
#73926
1!
#73952
0!
#73962
1!
#73988
0!
#74030
1!
#74040
0!
#74056
1!
#74100
0!
#74118
1!
#74126
0!
#74170
1!
#74214
0!
#74222
1!
#74230
0!
#74282
1!
#74300
0!
#74308
1!
#74344
0!
#74378
1!
#74386
0!
#74412
1!
#74456
0!
#74464
1!
#74474
0!
#74552
1!
#74560
0!
#74578
1!
#74604
0!
#74622
1!
#74630
0!
#74638
1!
#74648
0!
#74656
1!
#74664
0!
#74674
1!
#74690
0!
#74708
1!
#74734
0!
#74752
1!
#74804
0!
#74812
1!
#74820
0!
#74838
1!
#74890
0!
#74898
1!
#74908
0!
#74942
1!
#74952
0!
#74986
1!
#74994
0!
#75004
1!
#75012
0!
#75072
1!
#75082
0!
#75160
1!
#75168
0!
#75246
1!
#75254
0!
#75332
1!
#75342
0!
#75420
1!
#75428
0!
#75506
1!
#75516
0!
#75594
1!
#75602
0!
#75680
1!
#75690
0!
#75706
1!
#75724
0!
#75732
1!
#75776
0!
#75794
1!
#75846
0!
#75854
1!
#75900
0!
#75934
1!
#75942
0!
#75978
1!
#75986
0!
#75994
1!
#76002
0!
#76054
1!
#76070
0!
#76114
1!
#76122
0!
#76148
1!
#76156
0!
#76164
1!
#76172
0!
#76232
1!
#76240
0!
#76284
1!
#76292
0!
#76318
1!
#76326
0!
#76368
1!
#76376
0!
#76402
1!
#76410
0!
#76420
1!
#76444
0!
#76462
1!
#76470
0!
#76488
1!
#76496
0!
#76572
1!
#76580
0!
#76658
1!
#76666
0!
#76682
1!
#76716
0!
#76742
1!
#79518
0!
#79534
1!
#79586
0!
#79596
1!
#79604
0!
#79612
1!
#79622
0!
#79638
1!
#79656
0!
#79682
1!
#79690
0!
#79768
1!
#79778
0!
#79804
1!
#79822
0!
#79830
1!
#79838
0!
#79846
1!
#79864
0!
#79942
1!
#79952
0!
#79960
1!
#80004
0!
#80030
1!
#80038
0!
#80072
1!
#80124
0!
#80142
1!
#80152
0!
#80186
1!
#80212
0!
#80220
1!
#80246
0!
#80290
1!
#80298
0!
#80316
1!
#80360
0!
#80376
1!
#80386
0!
#80428
1!
#80472
0!
#80480
1!
#80490
0!
#80542
1!
#80560
0!
#80568
1!
#80602
0!
#80636
1!
#80646
0!
#80672
1!
#80716
0!
#80724
1!
#80732
0!
#80784
1!
#80820
0!
#80828
1!
#80846
0!
#80898
1!
#80906
0!
#80914
1!
#80958
0!
#80984
1!
#80994
0!
#81028
1!
#81080
0!
#81140
1!
#81166
0!
#81176
1!
#81202
0!
#81244
1!
#81254
0!
#81270
1!
#81314
0!
#81332
1!
#81340
0!
#81384
1!
#81428
0!
#81436
1!
#81444
0!
#81496
1!
#81514
0!
#81522
1!
#81558
0!
#81592
1!
#81600
0!
#81626
1!
#81670
0!
#81678
1!
#81688
0!
#81766
1!
#81774
0!
#81784
1!
#81792
0!
#81800
1!
#81818
0!
#81836
1!
#81844
0!
#81852
1!
#81862
0!
#81878
1!
#81904
0!
#81922
1!
#81948
0!
#81966
1!
#82018
0!
#82026
1!
#82034
0!
#82052
1!
#82104
0!
#82112
1!
#82122
0!
#82156
1!
#82166
0!
#82200
1!
#82208
0!
#82218
1!
#82226
0!
#82286
1!
#82296
0!
#82374
1!
#82382
0!
#82460
1!
#82470
0!
#82548
1!
#82556
0!
#82634
1!
#82642
0!
#82720
1!
#82730
0!
#82808
1!
#82816
0!
#82894
1!
#82904
0!
#82920
1!
#82938
0!
#82946
1!
#82990
0!
#83008
1!
#83060
0!
#83068
1!
#83128
0!
#83162
1!
#83170
0!
#83204
1!
#83212
0!
#83222
1!
#83230
0!
#83282
1!
#83298
0!
#83340
1!
#83348
0!
#83374
1!
#83382
0!
#83392
1!
#83400
0!
#83460
1!
#83468
0!
#83510
1!
#83518
0!
#83544
1!
#83552
0!
#83596
1!
#83604
0!
#83630
1!
#83638
0!
#83646
1!
#83672
0!
#83690
1!
#83698
0!
#83714
1!
#83722
0!
#83800
1!
#83808
0!
#83884
1!
#83892
0!
#83910
1!
#83944
0!
#83970
1!
#86370
0!
#86388
1!
#86440
0!
#86448
1!
#86456
0!
#86466
1!
#86474
0!
#86492
1!
#86508
0!
#86534
1!
#86544
0!
#86622
1!
#86630
0!
#86656
1!
#86674
0!
#86682
1!
#86692
0!
#86700
1!
#86718
0!
#86796
1!
#86804
0!
#86812
1!
#86856
0!
#86882
1!
#86890
0!
#86926
1!
#86978
0!
#86994
1!
#87004
0!
#87038
1!
#87064
0!
#87074
1!
#87100
0!
#87142
1!
#87152
0!
#87168
1!
#87212
0!
#87230
1!
#87238
0!
#87282
1!
#87324
0!
#87334
1!
#87342
0!
#87394
1!
#87412
0!
#87420
1!
#87456
0!
#87490
1!
#87498
0!
#87524
1!
#87568
0!
#87576
1!
#87586
0!
#87638
1!
#87672
0!
#87680
1!
#87698
0!
#87750
1!
#87760
0!
#87768
1!
#87812
0!
#87838
1!
#87846
0!
#87880
1!
#87932
0!
#87994
1!
#88020
0!
#88028
1!
#88054
0!
#88098
1!
#88106
0!
#88124
1!
#88168
0!
#88184
1!
#88194
0!
#88236
1!
#88280
0!
#88288
1!
#88298
0!
#88350
1!
#88366
0!
#88376
1!
#88410
0!
#88444
1!
#88454
0!
#88480
1!
#88524
0!
#88532
1!
#88540
0!
#88618
1!
#88628
0!
#88636
1!
#88654
0!
#88662
1!
#88670
0!
#88688
1!
#88696
0!
#88706
1!
#88714
0!
#88758
1!
#88766
0!
#88774
1!
#88800
0!
#88818
1!
#88870
0!
#88878
1!
#88888
0!
#88904
1!
#88958
0!
#88966
1!
#88974
0!
#89010
1!
#89018
0!
#89052
1!
#89062
0!
#89070
1!
#89078
0!
#89140
1!
#89148
0!
#89226
1!
#89234
0!
#89312
1!
#89322
0!
#89400
1!
#89408
0!
#89486
1!
#89496
0!
#89574
1!
#89582
0!
#89660
1!
#89670
0!
#89748
1!
#89756
0!
#89774
1!
#89790
0!
#89800
1!
#89842
0!
#89860
1!
#89912
0!
#89920
1!
#90008
0!
#90042
1!
#90050
0!
#90084
1!
#90092
0!
#90102
1!
#90110
0!
#90160
1!
#90178
0!
#90220
1!
#90228
0!
#90254
1!
#90262
0!
#90272
1!
#90280
0!
#90340
1!
#90348
0!
#90390
1!
#90398
0!
#90424
1!
#90432
0!
#90476
1!
#90484
0!
#90510
1!
#90518
0!
#90526
1!
#90552
0!
#90568
1!
#90576
0!
#90594
1!
#90602
0!
#90680
1!
#90688
0!
#90764
1!
#90772
0!
#90790
1!
#90824
0!
#90850
1!
#93616
0!
#93634
1!
#93686
0!
#93694
1!
#93704
0!
#93712
1!
#93720
0!
#93738
1!
#93756
0!
#93782
1!
#93790
0!
#93868
1!
#93878
0!
#93902
1!
#93920
0!
#93928
1!
#93938
0!
#93946
1!
#93964
0!
#94042
1!
#94050
0!
#94060
1!
#94102
0!
#94128
1!
#94138
0!
#94172
1!
#94224
0!
#94242
1!
#94250
0!
#94284
1!
#94312
0!
#94320
1!
#94346
0!
#94390
1!
#94398
0!
#94416
1!
#94458
0!
#94476
1!
#94484
0!
#94528
1!
#94572
0!
#94580
1!
#94588
0!
#94640
1!
#94658
0!
#94666
1!
#94702
0!
#94736
1!
#94746
0!
#94772
1!
#94814
0!
#94824
1!
#94832
0!
#94884
1!
#94918
0!
#94928
1!
#94944
0!
#94996
1!
#95006
0!
#95014
1!
#95058
0!
#95084
1!
#95092
0!
#95128
1!
#95180
0!
#95240
1!
#95266
0!
#95274
1!
#95300
0!
#95344
1!
#95352
0!
#95370
1!
#95414
0!
#95430
1!
#95440
0!
#95484
1!
#95526
0!
#95536
1!
#95544
0!
#95596
1!
#95614
0!
#95622
1!
#95656
0!
#95692
1!
#95700
0!
#95726
1!
#95770
0!
#95778
1!
#95788
0!
#95866
1!
#95874
0!
#95882
1!
#95900
0!
#95908
1!
#95918
0!
#95934
1!
#95944
0!
#95952
1!
#95960
0!
#96004
1!
#96012
0!
#96022
1!
#96048
0!
#96064
1!
#96116
0!
#96126
1!
#96134
0!
#96152
1!
#96204
0!
#96212
1!
#96222
0!
#96256
1!
#96264
0!
#96300
1!
#96308
0!
#96316
1!
#96326
0!
#96386
1!
#96394
0!
#96438
1!
#96446
0!
#96472
1!
#96482
0!
#96560
1!
#96568
0!
#96646
1!
#96656
0!
#96734
1!
#96742
0!
#96820
1!
#96828
0!
#96906
1!
#96916
0!
#96994
1!
#97002
0!
#97020
1!
#97038
0!
#97054
1!
#97090
0!
#97106
1!
#97158
0!
#97168
1!
#97252
0!
#97286
1!
#97294
0!
#97328
1!
#97336
0!
#97346
1!
#97354
0!
#97406
1!
#97422
0!
#97464
1!
#97472
0!
#97498
1!
#97506
0!
#97516
1!
#97524
0!
#97584
1!
#97592
0!
#97634
1!
#97642
0!
#97668
1!
#97676
0!
#97720
1!
#97728
0!
#97754
1!
#97762
0!
#97770
1!
#97796
0!
#97814
1!
#97822
0!
#97838
1!
#97846
0!
#97924
1!
#97932
0!
#98008
1!
#98016
0!
#98034
1!
#98068
0!
#98094
1!
#100644
0!
#100662
1!
#100714
0!
#100722
1!
#100730
0!
#100740
1!
#100748
0!
#100766
1!
#100782
0!
#100808
1!
#100818
0!
#100896
1!
#100904
0!
#100930
1!
#100948
0!
#100956
1!
#100966
0!
#100974
1!
#100992
0!
#101070
1!
#101078
0!
#101086
1!
#101130
0!
#101156
1!
#101164
0!
#101200
1!
#101252
0!
#101268
1!
#101278
0!
#101312
1!
#101338
0!
#101348
1!
#101374
0!
#101416
1!
#101426
0!
#101442
1!
#101486
0!
#101504
1!
#101512
0!
#101556
1!
#101600
0!
#101608
1!
#101616
0!
#101668
1!
#101686
0!
#101694
1!
#101730
0!
#101764
1!
#101772
0!
#101798
1!
#101842
0!
#101850
1!
#101860
0!
#101912
1!
#101946
0!
#101954
1!
#101972
0!
#102024
1!
#102034
0!
#102042
1!
#102086
0!
#102112
1!
#102120
0!
#102154
1!
#102206
0!
#102268
1!
#102294
0!
#102302
1!
#102328
0!
#102372
1!
#102380
0!
#102398
1!
#102442
0!
#102458
1!
#102468
0!
#102510
1!
#102554
0!
#102562
1!
#102572
0!
#102624
1!
#102640
0!
#102650
1!
#102684
0!
#102718
1!
#102728
0!
#102754
1!
#102798
0!
#102806
1!
#102814
0!
#102892
1!
#102902
0!
#102928
1!
#102944
0!
#102962
1!
#102970
0!
#102980
1!
#102988
0!
#102996
1!
#103032
0!
#103048
1!
#103074
0!
#103092
1!
#103144
0!
#103152
1!
#103162
0!
#103178
1!
#103232
0!
#103240
1!
#103248
0!
#103284
1!
#103292
0!
#103326
1!
#103336
0!
#103344
1!
#103352
0!
#103414
1!
#103422
0!
#103500
1!
#103510
0!
#103588
1!
#103596
0!
#103674
1!
#103682
0!
#103760
1!
#103770
0!
#103848
1!
#103856
0!
#103934
1!
#103944
0!
#104022
1!
#104030
0!
#104048
1!
#104064
0!
#104074
1!
#104116
0!
#104134
1!
#104186
0!
#104194
1!
#104254
0!
#104288
1!
#104296
0!
#104330
1!
#104338
0!
#104348
1!
#104356
0!
#104406
1!
#104424
0!
#104466
1!
#104474
0!
#104500
1!
#104508
0!
#104518
1!
#104526
0!
#104586
1!
#104594
0!
#104636
1!
#104644
0!
#104670
1!
#104678
0!
#104722
1!
#104730
0!
#104756
1!
#104764
0!
#104772
1!
#104798
0!
#104814
1!
#104822
0!
#104840
1!
#104848
0!
#104926
1!
#104934
0!
#105010
1!
#105018
0!
#105036
1!
#105070
0!
#105096
1!
#107662
0!
#107680
1!
#107732
0!
#107740
1!
#107750
0!
#107758
1!
#107766
0!
